<?xml version="1.0" encoding="UTF-8"?>
<svg width="200px" height="200px" viewBox="0 0 200 200" version="1.1" xmlns="http://www.w3.org/2000/svg" xmlns:xlink="http://www.w3.org/1999/xlink">
    <title>CELogo-petit-monochrome</title>
    <g id="CELogo-petit-monochrome" stroke="none" stroke-width="1" fill="none" fill-rule="evenodd">
        <path d="M160.063256,62.8178788 C160.2107,63.0608242 160.107418,63.3785769 160.192181,63.612973 C160.408954,64.2140432 160.655723,64.8046643 160.912991,65.3917495 L161.6968,67.1493108 C161.955572,67.7362376 162.205348,68.326542 162.426633,68.9271373 C163.712315,72.4167173 164.528599,76.1357062 165.503011,79.7777505 C166.351347,82.9502903 167.445424,86.5980342 168.378523,89.8859908 C169.55665,94.0395742 171.355181,98.5315713 171.436455,102.905302 C171.44208,103.225904 171.114427,103.514446 171.056731,103.883496 C170.974106,104.412846 171.172122,104.81538 171.153603,105.260661 C171.105879,106.421242 170.562403,106.927794 170.140727,107.809095 C169.944135,108.219466 169.590127,109.382184 169.402795,109.633679 C169.231846,109.863088 168.038049,110.377477 167.700424,110.637521 C167.280648,110.961211 166.960671,111.258857 166.660639,111.549035 L166.305063,111.894853 C165.830097,112.354336 165.324416,112.813724 164.460931,113.349106 C160.551174,115.772861 156.208346,117.742785 152.278645,120.273407 C151.220183,120.955222 150.177391,121.796625 149.101122,122.5162 C148.99636,122.58613 148.852149,122.694641 148.700753,122.812492 L148.472305,122.992618 C148.208905,123.202407 147.97291,123.396021 147.937241,123.416737 C147.534797,123.65042 147.142326,123.531441 146.417927,124.105676 C144.531785,125.600396 141.590029,127.047382 139.281499,128.200126 C137.660329,129.009469 135.72575,129.84446 134.117401,130.744997 C133.685041,130.986518 133.014777,131.038526 132.735559,131.217351 C132.641705,131.277533 132.564058,131.358698 132.488097,131.44429 L132.373606,131.573928 C132.159369,131.810097 131.902977,132.017139 131.302433,131.850719 L131.586636,132.27534 C130.658523,132.021707 130.657099,132.540371 130.294543,132.76408 C129.518148,133.242847 126.176798,134.839447 125.777204,135.306814 C125.706687,135.388746 125.778628,135.62243 125.730905,135.668739 C125.661101,135.736422 125.243699,135.678001 125.027163,135.754945 C123.634637,136.248673 122.077572,137.57953 120.71425,138.279868 C120.328902,138.477217 119.80252,138.550599 119.570313,138.677415 C119.403638,138.768609 119.551794,139.027228 119.386543,139.116284 C118.872982,139.392002 117.868654,139.297247 117.594423,140.202771 C117.258222,140.342411 115.305837,141.027075 115.22606,141.126106 C115.140585,141.231548 115.234608,141.516528 115.203267,141.67113 C114.534427,141.470219 114.359204,141.957535 114.098506,142.091475 C113.258004,142.522508 112.361232,142.84026 111.470158,143.27913 C110.22935,143.890412 109.144533,144.813747 107.717105,144.784536 C107.629493,144.783111 107.660122,144.55869 107.587468,144.550853 C105.853043,144.353504 104.855838,145.479175 103.414164,145.634489 C95.7869689,146.455944 89.0301912,146.359051 81.7299367,143.591183 C76.0244982,141.428897 69.8090606,138.065421 64.802378,134.601489 C64.5295712,134.41269 64.066583,134.315084 63.9241252,134.193967 C63.736793,134.035091 63.7659969,133.689553 63.5779525,133.542076 C63.3777992,133.384624 63.050146,133.470831 62.9518501,133.384624 C62.8863194,133.327628 62.9333305,133.070434 62.7773392,132.924382 C62.4853005,132.650801 61.5450784,132.38007 61.221699,132.05448 C61.0286686,131.860694 60.9524536,131.475971 60.9040179,131.446048 C60.788627,131.37409 60.4645353,131.451035 60.2216446,131.347017 C59.3084896,130.957307 58.7557529,129.786039 58.0733797,129.363557 C57.7186595,129.144122 57.2221938,129.151247 57.023465,129.015169 C56.8916915,128.924687 56.9949734,128.689579 56.8482418,128.565613 C56.2997789,128.103945 54.995577,127.377959 54.291835,126.884231 C53.1001748,126.048527 51.6763081,125.235621 50.3813659,124.383531 L49.5102604,123.815197 L47.7605629,122.68571 C46.0121825,121.554551 44.2803694,120.405448 42.6786679,119.122088 C40.8188801,117.632355 39.0004052,116.475336 37.0451707,115.140918 C35.17826,113.867057 34.9147129,113.725992 33.679603,111.815201 C33.6041004,111.698359 33.0392548,111.486049 32.798501,111.200357 C32.3818117,110.707341 32.1189769,109.816779 31.7229439,109.281729 L32.0021614,109.010286 C31.9898582,108.938069 31.8520214,108.763254 31.6957485,108.569543 L31.506226,108.333378 C31.3831171,108.177031 31.2756262,108.030019 31.2385871,107.935199 C31.1794671,107.784159 31.3169389,107.59821 31.2756262,107.45572 C31.2193553,107.261221 30.9401378,107.260508 30.8624983,107.120156 C30.7980361,107.002245 30.5674324,106.556074 30.3508073,106.126377 L30.193774,105.81258 C30.0449903,105.512646 29.9293991,105.270458 29.9229885,105.231451 C29.8959215,105.066163 30.1943708,103.944054 30.1708652,103.439639 C30.1373876,102.745 30.1466474,102.806271 30.1680161,102.172903 C30.1779881,101.865125 29.8845249,101.407732 29.9009007,101.306564 C29.9237008,101.170486 30.2485048,101.097104 30.3603342,100.946777 C30.7414091,100.434525 30.4194542,99.5831475 30.5184625,99.0872823 C31.0761851,96.2880663 32.5000517,92.7115674 33.354799,89.8439563 C33.6247567,88.9377199 34.0393092,88.3371246 34.3220881,87.6802457 C34.9994754,86.1092935 35.3826871,84.4229244 35.9845717,82.8241866 C36.8770704,82.5584428 36.3934258,82.4522877 36.428328,81.957135 C36.514515,80.7481074 37.5573068,78.4860787 37.9447922,77.2050936 C38.7674865,74.4821098 39.560977,71.6885935 40.4292578,69.0190434 C40.4634477,68.9143132 40.9442431,68.662106 40.6999278,68.0707725 C40.9257236,67.8036037 41.5817421,69.0012321 41.6992699,69.1344603 C45.1303682,73.0279994 48.1554614,74.3966158 52.4762092,77.0141571 C55.8503243,79.0588885 58.9138812,81.5204032 62.2566556,83.6121563 C67.1408243,86.6685667 71.9174373,89.8738792 77.0694269,92.4422613 C78.9014353,93.3556222 80.8652173,93.999677 82.6901029,94.797621 C87.0158367,96.6877508 89.9547429,98.5899922 94.7769425,99.3736872 C96.4850126,99.6508302 98.5933893,100.11321 100.302172,100.088275 C105.608016,100.010617 110.37893,97.9202892 115.094999,95.793626 C118.934239,94.0623726 122.246385,91.9891432 125.901854,89.9358623 C128.850733,88.2794161 131.867991,87.08535 134.878838,85.3825945 C141.849303,81.4406088 148.647393,76.8802165 154.245276,71.1385821 C156.506795,68.8202698 158.438524,65.8799888 159.530464,62.8271406 L160.063256,62.8178788 Z M111.728719,36.3161645 C113.644065,36.5220625 114.200363,36.6495911 115.983224,37.4667712 C117.735456,38.2697023 119.766193,38.7092839 121.614584,39.5264641 C129.923441,43.1984313 138.867659,47.4930797 146.777633,51.8953081 C148.821904,53.0330908 151.406803,54.4195184 153.289384,55.7033533 C154.330751,56.4136659 155.27311,57.2294211 156.171307,58.1064471 L155.949072,58.6037371 L156.384993,58.9100906 C156.460496,59.2591911 156.135692,59.4814755 156.095804,59.7479318 C155.963318,60.6342196 155.99822,62.3633357 155.775986,63.1299319 C155.628542,63.6393336 154.337161,64.138761 154.80656,65.0799075 C154.101393,64.7015965 153.929019,65.5437124 153.523014,66.0082298 C153.299356,66.2647118 152.779384,66.5917263 152.701032,66.6686709 C152.613421,66.7555898 152.728099,67.0840292 152.53222,67.2906397 C152.411131,67.4181683 152.069232,67.4594904 151.884036,67.6397402 C151.233004,68.2723958 150.710183,69.3325214 150.020687,70.0485336 C146.769086,73.4219843 141.926942,76.7591 137.917465,79.0239784 C136.663123,79.7321537 135.350374,80.3512728 134.141619,81.0865211 C132.943548,81.8160699 131.500449,82.9025561 130.167044,83.3791852 C129.845089,83.4938896 129.435522,83.424782 129.104308,83.5701218 L129.021682,84.1586054 C128.757423,84.0738239 128.158387,84.007566 127.92262,84.1065966 C127.691838,84.2034898 127.665483,84.499869 127.453221,84.6501959 C126.99878,84.9715109 125.681045,85.5721062 125.089844,85.8506741 C124.711619,86.0287866 124.227262,86.0323489 123.895335,86.2311224 C123.578366,86.4206341 123.75074,86.7177258 123.61683,86.7975202 C123.482207,86.878027 123.259261,86.7590479 123.0819,86.8295804 C121.705757,87.376742 120.822518,88.0678185 119.652939,88.6748259 C118.921418,89.0545617 117.566643,89.4770445 117.001085,89.8681796 C116.765318,90.0306182 116.421282,90.6248014 116.15631,90.8007766 C115.988922,90.9119188 115.634202,90.8036264 115.49032,91.0643831 L115.773098,91.4163334 C115.396297,91.1470273 114.825753,91.5858965 114.781592,91.556686 L114.779037,91.5395041 L114.778302,91.4484476 C114.774672,91.3733974 114.757984,91.284123 114.687569,91.2674313 C114.064316,91.1192417 113.136203,92.0539761 112.532181,92.2349384 C110.732938,92.7749755 108.594645,93.1903338 106.765486,93.99184 C105.477667,94.5568129 101.321458,95.2913488 99.5984297,95.5392814 C99.0001066,95.6254878 98.2942277,95.4922597 97.6809465,95.5478308 L97.824829,95.829961 C96.294119,96.3536117 95.0511739,95.9240044 93.6073632,95.4252894 C92.6842361,95.1068243 91.7504246,94.8581792 90.8030797,94.3737132 C89.5074252,93.7111348 87.8948018,92.6410349 86.4353208,92.1950412 C85.8448328,92.0140789 85.4423893,92.3161577 85.106901,92.2449127 C85.0327581,92.2293683 84.4426469,91.9900794 83.8036896,91.7224208 L83.4181906,91.5599844 C82.7783797,91.2887931 82.1831471,91.0283072 82.0996149,90.9739019 C81.8374924,90.8036264 81.767688,90.4972729 81.6907608,90.453101 C80.61093,89.8282824 79.4498982,89.6530197 78.2333078,88.8522259 C76.503869,87.7130184 75.0201701,87.3489564 73.225913,86.3173289 C69.8368398,84.3687782 66.5745542,82.1466467 63.2567099,80.0506189 C62.9504255,79.8568325 62.4518229,79.8105232 62.1718931,79.6067625 C61.7715865,79.3160829 61.2366571,78.4974779 60.8562945,78.1783003 C60.3092562,77.7187701 59.2336992,77.3511459 58.8868142,77.0497796 C58.7372334,76.9186888 58.8013395,76.6586445 58.6510464,76.5425152 C58.4687003,76.4014501 57.8497208,76.3929007 57.5234922,76.2418613 C57.0889956,76.0409504 56.8532278,75.5422354 56.5661752,75.3477366 C55.4856321,74.6160504 53.6066125,73.9085876 52.4220752,73.2253481 C51.7724672,72.8498869 49.7253474,71.6964304 49.2552363,71.2646857 C48.6989383,70.7524342 48.8328487,70.7531466 48.0557409,70.185324 C47.3455883,69.6666604 46.901832,68.931412 46.3248775,68.4982425 C46.0456601,68.2887822 45.5826719,68.2018633 45.3255355,67.9311323 C45.0961783,67.6896117 44.1153557,65.5693606 44.0334424,65.2231099 C43.931585,64.7899403 43.980733,63.7982099 43.8340014,63.1890652 C43.791264,63.0109527 43.0739885,62.9824547 43.5384012,62.294228 C43.6167531,62.1788111 44.3739168,61.589615 44.5548383,61.4599491 C47.7644145,59.1587357 49.7630987,58.9649493 53.4085961,57.9219225 C61.4588914,55.6178593 69.1509051,52.9739574 76.7781005,49.5292618 C80.4741704,47.8599915 84.1759387,46.1023774 87.7195786,44.2336211 C88.0913937,44.0376973 88.8677892,43.7769406 89.278068,43.7249318 L89.1334732,43.4428016 C89.861433,43.4249904 90.4512087,42.8550304 91.0281631,42.5572263 C95.5875279,40.1990168 102.047993,36.0860431 107.308963,35.4804606 C108.902354,35.2966485 110.232199,36.1558632 111.728719,36.3161645 Z" id="Touche-blanc" fill="#FFFFFF"></path>
        <path d="M105.631521,32.0813618 C106.652944,31.9167858 107.799018,32.0514389 108.858905,32.0578509 C110.098288,32.0656879 111.246499,31.9117987 112.484458,32.2167273 L112.583466,32.6285234 C113.0607,32.5387547 113.443912,32.8358463 113.867724,32.9021042 C115.585054,33.1735476 118.282494,33.880298 119.817478,34.7801223 C121.114557,35.5410189 122.407362,35.7654406 123.739344,36.4123452 C125.514369,37.2744097 127.363472,38.139324 129.189782,39.0441354 C129.74608,39.3198536 129.905633,39.2108487 130.303091,39.3861114 C130.536722,39.4887042 130.837308,39.9446722 131.273229,40.1242096 C131.765421,40.3265454 132.645099,40.3429317 133.05324,40.5880145 C140.730296,45.1911538 150.01855,48.5610422 157.01252,54.1217143 C157.912142,54.8370141 158.991973,56.0866514 159.86524,56.6808347 C160.120239,56.8546725 160.913017,57.0926307 161.036956,57.2885545 C161.148785,57.4652421 161.12528,57.8976992 161.325433,58.2133146 C162.458686,59.9944395 163.494354,62.3141766 164.634017,64.3375346 C165.973122,66.7156926 166.33354,69.9352541 167.094978,72.5185977 C167.24812,73.0372613 167.772365,73.8580036 167.884907,74.4471998 C167.946163,74.7670898 167.738887,75.0107477 167.792309,75.2316072 C167.833622,75.4025952 168.372825,76.2881705 168.52383,76.7847482 C170.234037,82.3995664 171.710613,88.203184 173.543334,93.8351011 C173.779102,94.5596627 174.241378,95.1994428 174.427285,95.9418156 C175.277046,99.3352149 175.457968,107.889602 173.001994,110.596199 C172.883042,110.72729 172.563224,110.743676 172.396548,110.916802 C171.00972,112.357376 170.023912,113.209466 168.410576,114.340124 C168.072951,114.576657 167.827211,114.89156 167.486737,115.122394 C167.955423,115.14448 168.01668,115.591186 168.404878,115.774998 C169.155631,116.129798 170.749735,117.218422 171.250474,117.908786 C171.634398,118.438849 172.293266,119.231093 172.591715,119.700598 C173.947914,121.832248 173.799758,126.542967 172.614508,128.758687 C172.588866,128.807133 172.296739,129.169832 171.971939,129.56507 L171.725866,129.863199 C171.399343,130.257101 171.098598,130.613115 171.057444,130.649529 C170.781788,130.893187 170.280336,131.056338 169.923479,131.366966 C168.12566,132.930794 166.448219,134.913542 164.565638,136.4047 C162.816967,137.78899 160.037614,139.083512 158.007589,140.101603 C157.082325,140.565408 155.191196,141.222286 154.531616,141.752349 C154.196128,142.021655 154.081449,142.37788 153.816478,142.603727 C152.428938,143.782119 150.263578,145.028907 148.667337,145.999976 C148.294098,146.226535 147.40801,146.510803 147.122381,146.7338 C146.885189,146.918324 146.856698,147.356481 146.62734,147.520344 C146.382313,147.696319 145.978445,147.65001 145.63797,147.813161 C144.820262,148.202871 143.850836,149.361315 143.175586,149.907764 C142.090057,150.786215 140.144082,151.49724 138.919656,152.20399 C136.576936,153.555508 134.416562,155.16422 132.064583,156.599807 C130.821638,157.357854 129.378539,158.388769 128.130608,158.932368 C126.338488,159.713926 124.515027,160.423526 122.650965,161.002035 C121.891665,161.237856 121.237071,162.018701 120.513385,162.281595 C119.70921,162.5737 118.679952,162.698379 117.910679,162.956286 C115.983224,163.601765 114.366327,164.730286 112.271484,165.008141 C109.984322,165.311645 108.152314,165.617286 105.913588,166.341848 C105.537499,166.462964 105.042458,166.850537 104.721928,166.870486 C104.345839,166.893997 104.099387,166.549883 103.611468,166.58978 C103.006022,166.638939 102.253132,167.120556 101.702533,167.258771 C101.089964,167.411948 98.5086269,167.987607 98.0228455,168 C97.6367846,168.009693 97.3020085,167.751074 96.8960036,167.719014 C95.3239808,167.597185 94.2363148,167.452557 92.6365127,167.144067 C87.7858216,166.209332 83.8176571,164.285005 79.4563088,162.092796 C76.1170959,160.414264 72.5499503,158.76138 69.1174275,156.907585 C66.7825427,155.646549 64.5195991,154.24231 62.1604965,153.039694 C61.4503439,152.67777 60.5186693,152.245313 59.9673573,151.928272 C58.5926387,151.138165 57.2157832,150.191319 55.8659947,149.364877 C55.3267916,149.034301 53.939964,147.809599 53.2433449,147.287373 C52.3850361,146.644743 51.6998137,145.653725 50.5430556,145.501974 C50.8037536,144.632072 49.985333,144.73609 49.845012,144.487445 C49.7581127,144.333556 49.8663807,144.02364 49.8079729,143.960232 C49.7766322,143.926034 49.41194,143.948833 49.2481134,143.882575 C48.4261314,143.548436 48.1640089,142.946415 47.5272221,142.464799 C45.5121553,140.942294 41.7363089,138.093919 39.5189519,137.370069 C38.9277517,137.176996 37.7246948,136.285721 37.2054358,135.839727 C36.5373083,135.266205 36.352113,135.668739 36.5009815,134.54663 C36.0522392,134.422664 35.33069,134.192543 35.0450619,133.798558 C34.8969057,133.594797 34.8748247,133.061172 34.6803697,132.881635 C34.4495879,132.668612 33.4217543,132.591667 32.9544924,132.256816 C31.7208071,131.371953 30.7300124,130.086693 29.7228352,129.085701 C29.3111319,128.676042 28.8346102,128.647544 28.4385773,128.370401 C27.6009249,127.78548 26.9705487,126.323533 26.4662478,125.928123 C26.1806198,125.704414 25.8009695,125.752148 25.7582321,125.710826 C25.7090841,125.663091 25.738288,125.256282 25.6335815,125.053234 C25.4783024,124.75258 25.1421017,124.57233 25.0580516,124.203281 C24.8108872,123.11822 25.3914031,119.745482 26.0246284,118.821434 C26.2867509,118.438849 26.7946133,118.180942 27.0289565,117.688639 C27.204892,117.31959 27.0980486,116.934867 27.3851012,116.478899 C27.4990675,116.298649 28.3338707,115.45867 28.5169291,115.333992 C29.3937574,114.734821 30.6701801,114.912934 31.1110873,113.839984 C30.5904037,113.183105 30.0910888,112.511977 29.5839387,111.843699 C29.1886181,111.322898 28.9998614,111.036493 28.6878786,110.460834 C28.2334379,109.62513 26.3636781,105.848433 26.4555635,105.168755 C26.5866247,104.194836 26.8565824,103.252977 26.8829371,102.173616 C26.8964706,101.621467 26.6528677,100.311984 26.8729651,100.01703 C26.9598644,99.9009002 27.2006182,99.875252 27.3124477,99.7128134 C28.0888432,98.5878549 27.8488016,96.5395612 28.2911334,95.9140301 C28.4022505,95.7572911 28.6971384,95.9104678 28.7420126,95.750879 C28.7875991,95.2728251 28.6451412,94.647294 28.7334651,94.1963132 C28.9072638,93.3150126 29.5611455,91.9314347 29.83324,91.023061 C31.4337544,85.6818235 33.2422573,80.2828776 34.9211235,75.0378208 C35.7067788,72.5848555 36.5202133,70.6469916 37.4290947,68.2902071 C38.4896937,65.5408626 39.3287706,61.6943452 41.6287532,59.8170395 C43.8382751,58.014541 47.5891913,56.7812901 50.3550112,55.8665043 C56.8161888,53.7305793 63.9497676,51.6658993 70.0747445,48.8089748 C71.1852038,48.2910237 72.0976465,47.5621874 73.1981337,47.089833 C74.168272,46.6737623 75.6754764,46.370971 76.5622768,45.8964793 C76.8835193,45.7247789 76.9340919,45.3706912 77.3949431,45.1626558 C79.8559032,44.0519463 81.8382047,43.3095735 84.191609,41.9894036 C89.5900507,38.9622037 94.5133954,35.7355177 100.465286,33.7655935 C101.400522,33.4556778 102.130619,32.7026182 103.085799,33.3260119 C103.424849,32.5587033 104.830196,32.2110277 105.631521,32.0813618 Z M160.063256,62.8178788 L159.530464,62.8271406 C158.438524,65.8799888 156.506795,68.8202698 154.245276,71.1385821 C148.647393,76.8802165 141.849303,81.4406088 134.878838,85.3825945 C131.867991,87.08535 128.850733,88.2794161 125.901854,89.9358623 C122.246385,91.9891432 118.934239,94.0623726 115.094999,95.793626 C110.37893,97.9202892 105.608016,100.010617 100.302172,100.088275 C98.5933893,100.11321 96.4850126,99.6508302 94.7769425,99.3736872 C89.9547429,98.5899922 87.0158367,96.6877508 82.6901029,94.797621 C80.8652173,93.999677 78.9014353,93.3556222 77.0694269,92.4422613 C73.3894343,90.6077026 69.9009604,88.4481795 66.4280095,86.250074 L64.3446937,84.9288719 C63.6499373,84.4884552 62.954394,84.0487864 62.2566556,83.6121563 C58.9138812,81.5204032 55.8503243,79.0588885 52.4762092,77.0141571 C48.1554614,74.3966158 45.1303682,73.0279994 41.6992699,69.1344603 C41.5817421,69.0012321 40.9257236,67.8036037 40.6999278,68.0707725 C40.9442431,68.662106 40.4634477,68.9143132 40.4292578,69.0190434 C39.560977,71.6885935 38.7674865,74.4821098 37.9447922,77.2050936 C37.5573068,78.4860787 36.514515,80.7481074 36.428328,81.957135 C36.3934258,82.4522877 36.8770704,82.5584428 35.9845717,82.8241866 C35.3826871,84.4229244 34.9994754,86.1092935 34.3220881,87.6802457 C34.0393092,88.3371246 33.6247567,88.9377199 33.354799,89.8439563 C32.5000517,92.7115674 31.0761851,96.2880663 30.5184625,99.0872823 C30.4194542,99.5831475 30.7414091,100.434525 30.3603342,100.946777 C30.2485048,101.097104 29.9237008,101.170486 29.9009007,101.306564 C29.8845249,101.407732 30.1779881,101.865125 30.1680161,102.172903 C30.1466474,102.806271 30.1373876,102.745 30.1708652,103.439639 C30.1943708,103.944054 29.8959215,105.066163 29.9229885,105.231451 C29.9400834,105.335469 30.7335739,106.884335 30.8624983,107.120156 C30.9401378,107.260508 31.2193553,107.261221 31.2756262,107.45572 C31.3169389,107.59821 31.1794671,107.784159 31.2385871,107.935199 C31.3404445,108.195955 31.9750944,108.851409 32.0021614,109.010286 L31.7229439,109.281729 C32.1189769,109.816779 32.3818117,110.707341 32.798501,111.200357 C33.0392548,111.486049 33.6041004,111.698359 33.679603,111.815201 C34.9147129,113.725992 35.17826,113.867057 37.0451707,115.140918 C39.0004052,116.475336 40.8188801,117.632355 42.6786679,119.122088 C44.2803694,120.405448 46.0121825,121.554551 47.7605629,122.68571 L49.5102604,123.815197 L50.3813659,124.383531 C51.6763081,125.235621 53.1001748,126.048527 54.291835,126.884231 C54.995577,127.377959 56.2997789,128.103945 56.8482418,128.565613 C56.9949734,128.689579 56.8916915,128.924687 57.023465,129.015169 C57.2221938,129.151247 57.7186595,129.144122 58.0733797,129.363557 C58.7557529,129.786039 59.3084896,130.957307 60.2216446,131.347017 C60.4645353,131.451035 60.788627,131.37409 60.9040179,131.446048 C60.9524536,131.475971 61.0286686,131.860694 61.221699,132.05448 C61.5450784,132.38007 62.4853005,132.650801 62.7773392,132.924382 C62.9333305,133.070434 62.8863194,133.327628 62.9518501,133.384624 C63.050146,133.470831 63.3777992,133.384624 63.5779525,133.542076 C63.7659969,133.689553 63.736793,134.035091 63.9241252,134.193967 C64.066583,134.315084 64.5295712,134.41269 64.802378,134.601489 C69.8090606,138.065421 76.0244982,141.428897 81.7299367,143.591183 C89.0301912,146.359051 95.7869689,146.455944 103.414164,145.634489 C104.855838,145.479175 105.853043,144.353504 107.587468,144.550853 C107.660122,144.55869 107.629493,144.783111 107.717105,144.784536 C108.698462,144.804619 109.517881,144.374474 110.337385,143.905036 L110.785369,143.647552 C111.010339,143.519331 111.237506,143.393745 111.470158,143.27913 C112.361232,142.84026 113.258004,142.522508 114.098506,142.091475 C114.359204,141.957535 114.534427,141.470219 115.203267,141.67113 C115.234608,141.516528 115.140585,141.231548 115.22606,141.126106 C115.305837,141.027075 117.258222,140.342411 117.594423,140.202771 C117.868654,139.297247 118.872982,139.392002 119.386543,139.116284 C119.551794,139.027228 119.403638,138.768609 119.570313,138.677415 C119.80252,138.550599 120.328902,138.477217 120.71425,138.279868 C122.077572,137.57953 123.634637,136.248673 125.027163,135.754945 C125.243699,135.678001 125.661101,135.736422 125.730905,135.668739 C125.778628,135.62243 125.706687,135.388746 125.777204,135.306814 C126.176798,134.839447 129.518148,133.242847 130.294543,132.76408 C130.657099,132.540371 130.658523,132.021707 131.586636,132.27534 L131.302433,131.850719 C132.230546,132.107914 132.336677,131.473121 132.735559,131.217351 C133.014777,131.038526 133.685041,130.986518 134.117401,130.744997 C135.72575,129.84446 137.660329,129.009469 139.281499,128.200126 C141.590029,127.047382 144.531785,125.600396 146.417927,124.105676 C147.142326,123.531441 147.534797,123.65042 147.937241,123.416737 C147.97291,123.396021 148.208905,123.202407 148.472305,122.992618 L148.700753,122.812492 C148.852149,122.694641 148.99636,122.58613 149.101122,122.5162 C150.177391,121.796625 151.220183,120.955222 152.278645,120.273407 C156.208346,117.742785 160.551174,115.772861 164.460931,113.349106 C166.079965,112.345264 166.441096,111.608591 167.700424,110.637521 C168.038049,110.377477 169.231846,109.863088 169.402795,109.633679 C169.590127,109.382184 169.944135,108.219466 170.140727,107.809095 C170.562403,106.927794 171.105879,106.421242 171.153603,105.260661 C171.172122,104.81538 170.974106,104.412846 171.056731,103.883496 C171.114427,103.514446 171.44208,103.225904 171.436455,102.905302 C171.355181,98.5315713 169.55665,94.0395742 168.378523,89.8859908 C167.445424,86.5980342 166.351347,82.9502903 165.503011,79.7777505 C164.528599,76.1357062 163.712315,72.4167173 162.426633,68.9271373 C161.762779,67.1253513 160.842501,65.4161838 160.192181,63.612973 C160.107418,63.3785769 160.2107,63.0608242 160.063256,62.8178788 Z M107.624255,35.4570891 L107.308963,35.4804606 C102.047993,36.0860431 95.5875279,40.1990168 91.0281631,42.5572263 C90.4512087,42.8550304 89.861433,43.4249904 89.1334732,43.4428016 L89.278068,43.7249318 C88.8677892,43.7769406 88.0913937,44.0376973 87.7195786,44.2336211 C84.1759387,46.1023774 80.4741704,47.8599915 76.7781005,49.5292618 C69.1509051,52.9739574 61.4588914,55.6178593 53.4085961,57.9219225 C49.7630987,58.9649493 47.7644145,59.1587357 44.5548383,61.4599491 C44.3739168,61.589615 43.6167531,62.1788111 43.5384012,62.294228 C43.0739885,62.9824547 43.791264,63.0109527 43.8340014,63.1890652 C43.980733,63.7982099 43.931585,64.7899403 44.0334424,65.2231099 C44.1153557,65.5693606 45.0961783,67.6896117 45.3255355,67.9311323 C45.5826719,68.2018633 46.0456601,68.2887822 46.3248775,68.4982425 C46.901832,68.931412 47.3455883,69.6666604 48.0557409,70.185324 C48.8328487,70.7531466 48.6989383,70.7524342 49.2552363,71.2646857 C49.7253474,71.6964304 51.7724672,72.8498869 52.4220752,73.2253481 C53.6066125,73.9085876 55.4856321,74.6160504 56.5661752,75.3477366 C56.8532278,75.5422354 57.0889956,76.0409504 57.5234922,76.2418613 C57.8497208,76.3929007 58.4687003,76.4014501 58.6510464,76.5425152 C58.8013395,76.6586445 58.7372334,76.9186888 58.8868142,77.0497796 C59.2336992,77.3511459 60.3092562,77.7187701 60.8562945,78.1783003 C61.2366571,78.4974779 61.7715865,79.3160829 62.1718931,79.6067625 C62.4518229,79.8105232 62.9504255,79.8568325 63.2567099,80.0506189 C66.5745542,82.1466467 69.8368398,84.3687782 73.225913,86.3173289 C75.0201701,87.3489564 76.503869,87.7130184 78.2333078,88.8522259 C79.4498982,89.6530197 80.61093,89.8282824 81.6907608,90.453101 C81.767688,90.4972729 81.8374924,90.8036264 82.0996149,90.9739019 C82.2833856,91.0935935 84.9437867,92.2107151 85.106901,92.2449127 C85.4423893,92.3161577 85.8448328,92.0140789 86.4353208,92.1950412 C87.8948018,92.6410349 89.5074252,93.7111348 90.8030797,94.3737132 C91.7504246,94.8581792 92.6842361,95.1068243 93.6073632,95.4252894 C95.0511739,95.9240044 96.294119,96.3536117 97.824829,95.829961 L97.6809465,95.5478308 C98.2942277,95.4922597 99.0001066,95.6254878 99.5984297,95.5392814 C101.321458,95.2913488 105.477667,94.5568129 106.765486,93.99184 C108.594645,93.1903338 110.732938,92.7749755 112.532181,92.2349384 C113.136203,92.0539761 114.064316,91.1192417 114.687569,91.2674313 C114.810795,91.2966418 114.769483,91.5481366 114.781592,91.556686 C114.825753,91.5858965 115.396297,91.1470273 115.773098,91.4163334 L115.49032,91.0643831 C115.634202,90.8036264 115.988922,90.9119188 116.15631,90.8007766 C116.421282,90.6248014 116.765318,90.0306182 117.001085,89.8681796 C117.566643,89.4770445 118.921418,89.0545617 119.652939,88.6748259 C120.822518,88.0678185 121.705757,87.376742 123.0819,86.8295804 C123.259261,86.7590479 123.482207,86.878027 123.61683,86.7975202 C123.75074,86.7177258 123.578366,86.4206341 123.895335,86.2311224 C124.227262,86.0323489 124.711619,86.0287866 125.089844,85.8506741 C125.681045,85.5721062 126.99878,84.9715109 127.453221,84.6501959 C127.665483,84.499869 127.691838,84.2034898 127.92262,84.1065966 C128.158387,84.007566 128.757423,84.0738239 129.021682,84.1586054 L129.104308,83.5701218 C129.435522,83.424782 129.845089,83.4938896 130.167044,83.3791852 C131.500449,82.9025561 132.943548,81.8160699 134.141619,81.0865211 C135.350374,80.3512728 136.663123,79.7321537 137.917465,79.0239784 C141.926942,76.7591 146.769086,73.4219843 150.020687,70.0485336 C150.710183,69.3325214 151.233004,68.2723958 151.884036,67.6397402 C152.069232,67.4594904 152.411131,67.4181683 152.53222,67.2906397 C152.728099,67.0840292 152.613421,66.7555898 152.701032,66.6686709 C152.779384,66.5917263 153.299356,66.2647118 153.523014,66.0082298 C153.929019,65.5437124 154.101393,64.7015965 154.80656,65.0799075 C154.337161,64.138761 155.628542,63.6393336 155.775986,63.1299319 C155.99822,62.3633357 155.963318,60.6342196 156.095804,59.7479318 C156.135692,59.4814755 156.460496,59.2591911 156.384993,58.9100906 L155.949072,58.6037371 L156.171307,58.1064471 C155.27311,57.2294211 154.330751,56.4136659 153.289384,55.7033533 C151.406803,54.4195184 148.821904,53.0330908 146.777633,51.8953081 C138.867659,47.4930797 129.923441,43.1984313 121.614584,39.5264641 C119.766193,38.7092839 117.735456,38.2697023 115.983224,37.4667712 C114.200363,36.6495911 113.644065,36.5220625 111.728719,36.3161645 C110.232199,36.1558632 108.902354,35.2966485 107.308963,35.4804606 Z M83.4013023,49.1169571 C86.0979708,48.6768963 90.3250076,49.598385 93.0779606,49.9057857 C94.0205478,50.0113432 95.9392079,49.9343147 96.6744686,50.1582679 C98.00606,50.5640938 97.5678959,50.4285807 98.9101742,50.4770801 C100.194743,50.5241531 102.102004,51.0155662 103.487742,51.1553586 C105.2119,51.3293859 106.524255,51.7302192 108.183579,52.0426124 C109.178888,52.2294777 110.348751,51.9812749 111.378259,52.198809 L111.233629,52.4812467 C111.57561,52.6253185 111.936829,52.2059413 112.136318,52.2237719 C112.470463,52.2544407 113.383839,52.7415744 113.73437,52.7636844 C115.606008,52.8842197 117.206197,53.0839231 119.050761,53.2608033 C120.438637,53.3941767 122.218367,53.2215759 123.550671,53.4904623 C124.435549,53.6694821 124.543131,53.8185465 125.555539,53.9069866 C128.927621,54.2008359 132.830488,54.6273454 136.171222,55.4033359 C137.370296,55.6822074 138.304333,56.0944524 139.373026,56.2178406 C141.126395,56.4196837 146.764819,58.530121 147.847049,60.0029338 C147.987404,60.1940785 148.074324,60.6377054 148.165519,60.7154471 C148.199005,60.7439762 148.414881,60.6013309 148.496814,60.7361307 C148.612233,60.9265622 148.580885,61.266058 148.724802,61.5185402 C148.863019,61.7617505 149.552683,62.3030894 149.694463,62.7139079 C150.655574,65.4990575 149.231362,68.4760651 147.067615,70.2933663 C146.344466,70.9003221 144.49064,71.6527761 143.534517,72.0329259 C139.896686,73.4793493 135.679623,74.1975684 132.00332,75.0370361 C129.309459,75.6517534 126.409322,75.8760644 123.485693,76.0672507 L121.535132,76.1937216 C119.585103,76.3231267 117.642685,76.4730967 115.762037,76.749493 C115.155019,76.8386463 114.406222,77.2858394 113.837677,77.0340704 C113.596153,76.9270864 113.457222,76.5961493 113.1701,76.5797451 C112.362168,76.5340986 111.02844,77.0861359 110.162086,77.1374882 C109.71181,77.1645908 109.364841,77.0198059 109.025709,77.0247984 C107.355698,77.0504746 105.947161,77.3293462 104.322035,77.4349037 C102.954108,77.5233438 101.4786,77.8243254 100.0608,77.6966578 C97.1796041,77.4377566 95.6250121,77.2615897 92.6390841,77.5697035 C88.7682783,77.9691104 82.0547492,79.2771679 78.3862826,78.8249822 C78.1233841,78.792887 77.9865915,78.5453974 77.6902073,78.5589487 C77.4508201,78.5696471 77.2192699,78.8207029 76.9528092,78.8485187 C76.5117952,78.8948784 75.8613174,78.6381169 75.2478877,78.6987411 C74.0210282,78.8192764 72.2612472,79.2358007 71.0094515,78.8185632 C70.6282844,78.6916089 70.0483403,78.2529745 69.6557738,78.1716667 C69.2632072,78.0903589 68.97751,78.2508349 68.6569021,78.1830783 C68.1995015,78.0860795 67.5183879,77.5497332 67.0360512,77.3778456 C65.1024294,76.6902952 62.7676916,76.7309491 61.3035822,74.9885367 C60.530561,74.0684744 59.6770316,72.2953932 59.1077745,71.1984508 C58.1723119,69.3932745 57.6051922,66.5617651 58.3276286,64.6296344 C58.8983107,63.104756 60.7307628,60.4280168 62.0067822,59.3267951 C63.7850872,57.7912183 66.5665387,57.2441736 68.8685033,57.2377545 C71.813821,57.2291958 75.0085005,57.5658387 77.9709173,57.4524357 C78.2551896,57.4417373 78.4817525,57.1678583 78.8208844,57.1721377 C79.1671409,57.1757038 79.3074959,57.4695531 79.5290716,57.4759722 C79.6188418,57.4788251 79.4507008,57.1457483 80.0897792,57.1835493 C81.0594399,57.2406074 83.9050129,57.9459885 84.5469412,58.6513695 C84.6709095,58.7875958 84.6673472,59.0350854 84.8062773,59.1791572 C85.5123271,59.9109276 85.2123806,59.2269433 85.7987368,60.4651046 C86.8453434,62.6768201 87.0740437,63.6439553 86.5446845,66.0539478 C86.152118,67.8412935 85.9120183,68.7549367 85.7217909,70.6471267 C85.6911551,70.9538141 85.1945691,71.4188378 85.6790432,71.5586302 C85.8400596,71.60499 87.0077848,71.7305178 87.2172486,71.7269517 C88.0444169,71.7134004 89.4358551,71.1699218 90.3763049,71.0272765 C90.5999632,70.9931787 91.3546416,70.8999729 92.1666825,70.8076116 L92.6124558,70.7576768 C93.5782871,70.6512278 94.5039533,70.5611829 94.6076165,70.5865025 C94.7230353,70.6143183 94.6460894,70.8425508 94.9097003,70.8782121 C95.7214999,70.9874377 96.3862705,70.8518955 97.0272453,70.6893048 L97.5054402,70.565692 C97.8238297,70.4844383 98.1439723,70.4100298 98.4812721,70.3696816 C99.1602484,70.2883738 99.8670106,70.4474233 100.724815,70.2605579 C101.269848,70.1421623 102.359203,69.3554734 102.755331,70.1542872 C103.62311,69.6421905 105.025235,69.9053711 106.107465,69.7983871 C111.846346,69.2327985 117.746243,69.2791582 123.557796,68.7271209 C125.532028,68.5402555 127.55542,67.8776681 129.549601,67.8726755 C129.770464,67.8719622 130.17443,68.1743703 130.130257,67.7214714 C130.053311,66.9333561 129.374335,66.6708887 129.191232,66.3392384 C129.161309,66.2864596 128.795104,65.2608399 128.785842,65.2009288 C128.671135,64.4948346 129.41637,62.5434468 128.371901,62.2075171 C128.143201,62.1340547 127.855366,62.201098 127.617404,62.1069521 C125.161548,61.1362508 122.637295,60.7689391 120.067445,60.1084913 C119.639967,59.9986545 119.196104,59.7269151 118.825623,59.641328 C118.484829,59.5623976 118.309801,59.5546313 118.193775,59.5538653 L118.093463,59.5530561 C117.945874,59.5476752 117.863325,59.502328 117.35154,59.1199594 C116.87419,58.7626329 114.44042,58.8881607 113.594728,58.7448022 C110.576739,58.2334188 108.099509,57.7584099 105.110018,56.9695813 C103.838986,56.6336516 100.496115,56.0851804 99.5841632,55.6658032 C99.3746994,55.5695176 99.3732745,55.3362926 99.2699675,55.2742419 C99.0284429,55.126604 96.3317744,54.7471674 95.7418559,54.6530215 C95.0692918,54.5446111 94.2492481,54.5324862 93.6735788,54.4433329 C93.0188263,54.3413415 92.3747607,54.1159619 91.7128835,54.0489187 L91.8568009,53.7664809 C91.4670842,53.7336725 91.0331948,53.8199729 90.6520277,53.757209 C89.1736691,53.514712 87.8720011,53.0254386 86.6123684,52.4890922 C85.9184304,52.19239 84.8183892,52.25872 84.2263333,51.918511 C83.519571,51.5133983 83.1441036,49.9821009 82.5940829,49.3487557 C82.8940294,49.3858435 83.1384039,49.1597507 83.4013023,49.1169571 Z M138.239499,62.172569 C137.248465,62.1547383 135.07973,63.0077572 135.175913,64.2337937 C135.197999,64.5105256 135.471585,64.7394713 135.465885,64.9505863 C135.463747,65.0197693 135.239322,65.0190561 135.218661,65.0561439 C134.688589,65.9918971 137.368871,66.2779009 137.945965,66.312849 C139.412212,66.4012891 141.094334,66.2736216 142.44445,65.6695187 C142.90185,65.2180463 142.249948,63.183211 141.77616,62.8972071 C141.525374,62.7460031 139.981469,62.6411588 139.555416,62.5648436 C139.430227,62.5426316 139.306549,62.5017885 139.183054,62.4545742 L138.811789,62.3060775 C138.625101,62.2345323 138.435833,62.176237 138.239499,62.172569 Z" id="Touche" fill="#231F20"></path>
    </g>
</svg>